2014-10-27 13:17:41 [installscript] Running install on: Linux | Apache/2.2.22 (Ubuntu) | php 5.3.10-1ubuntu3.14 | safe_mode: 0 | interface: fpm-fcgi
2014-10-27 13:17:41 [installscript] Found 1 chained extensions.
2014-10-27 13:17:41 [installscript] Installing MODULE... [SUCCESS]
2014-10-27 13:17:41 [installscript] Determining correct file permissions...  [100777]
2014-10-27 13:17:41 [installscript] setting permissions for [/var/www/clients/client2/web7/web/joomla/components/com_foxcontact/lib/captcha.php]... [1]
2014-10-27 13:17:41 [installscript] setting permissions for [/var/www/clients/client2/web7/web/joomla/components/com_foxcontact/lib/css.php]... [1]
2014-10-27 13:17:41 [installscript] setting permissions for [/var/www/clients/client2/web7/web/joomla/components/com_foxcontact/lib/functions.php]... [1]
2014-10-27 13:17:41 [installscript] setting permissions for [/var/www/clients/client2/web7/web/joomla/components/com_foxcontact/lib/js.php]... [1]
2014-10-27 13:17:41 [installscript] setting permissions for [/var/www/clients/client2/web7/web/joomla/components/com_foxcontact/lib/loader.php]... [1]
2014-10-27 13:17:41 [installscript] setting permissions for [/var/www/clients/client2/web7/web/joomla/components/com_foxcontact/lib/uploader.php]... [1]
2014-10-27 13:17:41 [installscript] Determining correct directory permissions...  [40777]
2014-10-27 13:17:41 [installscript] setting permissions for [/var/www/clients/client2/web7/web/joomla/components]... [1]
2014-10-27 13:17:41 [installscript] setting permissions for [/var/www/clients/client2/web7/web/joomla/components/com_foxcontact]... [1]
2014-10-27 13:17:41 [installscript] setting permissions for [/var/www/clients/client2/web7/web/joomla/components/com_foxcontact/lib]... [1]
2014-10-27 13:17:41 [fcaptchaimage] --- Determining if this system is able to draw captcha images ---
2014-10-27 13:17:41 [fcaptchaimage] gd extension found. Let's see if it works.
2014-10-27 13:17:41 [fcaptchaimage] GD Version... [2.0]
2014-10-27 13:17:41 [fcaptchaimage] FreeType Support... [1]
2014-10-27 13:17:41 [fcaptchaimage] FreeType Linkage... [with freetype]
2014-10-27 13:17:41 [fcaptchaimage] T1Lib Support... [1]
2014-10-27 13:17:41 [fcaptchaimage] GIF Read Support... [1]
2014-10-27 13:17:41 [fcaptchaimage] GIF Create Support... [1]
2014-10-27 13:17:41 [fcaptchaimage] JPEG Support... [1]
2014-10-27 13:17:41 [fcaptchaimage] PNG Support... [1]
2014-10-27 13:17:41 [fcaptchaimage] WBMP Support... [1]
2014-10-27 13:17:41 [fcaptchaimage] XPM Support... []
2014-10-27 13:17:41 [fcaptchaimage] XBM Support... []
2014-10-27 13:17:41 [fcaptchaimage] JIS-mapped Japanese Font Support... []
2014-10-27 13:17:41 [fcaptchaimage] testing function [imagecreate]... [1]
2014-10-27 13:17:41 [fcaptchaimage] testing function [imagecolorallocate]... [1]
2014-10-27 13:17:41 [fcaptchaimage] testing function [imagefill]... [1]
2014-10-27 13:17:41 [fcaptchaimage] testing function [imageline]... [1]
2014-10-27 13:17:41 [fcaptchaimage] testing function [imagettftext]... [1]
2014-10-27 13:17:41 [fcaptchaimage] testing function [imagejpeg]... [1]
2014-10-27 13:17:41 [fcaptchaimage] testing function [imagedestroy]... [1]
2014-10-27 13:17:41 [fcaptchaimage] --- Method choosen to draw captcha images is [use_gd] ---
2014-10-27 13:17:41 [fieldsbuilder] --- Determining if this system is able to query DNS records ---
2014-10-27 13:17:41 [fieldsbuilder] checkdnsrr function found. Let's see if it works.
2014-10-27 13:17:41 [fieldsbuilder] testing function [checkdnsrr]... [1]
2014-10-27 13:17:41 [fieldsbuilder] --- Method choosen to query DNS records is [dns_check] ---
2014-10-27 13:17:41 [fmimetype] --- Determining if this system is able to detect file mime types ---
2014-10-27 13:17:41 [fmimetype] fileinfo extension found. Let's see if it works.
2014-10-27 13:17:41 [fmimetype] testing detected mimetype [audio/mpeg; charset=binary] seeking expected string [/^audio\//]... [1]
2014-10-27 13:17:41 [fmimetype] testing detected mimetype [video/mp4; charset=binary] seeking expected string [/^video\//]... [1]
2014-10-27 13:17:41 [fmimetype] testing detected mimetype [image/jpeg; charset=binary] seeking expected string [/^image\//]... [1]
2014-10-27 13:17:41 [fmimetype] testing detected mimetype [application/zip; charset=binary] seeking expected string [/^application\/.*zip/]... [1]
2014-10-27 13:17:41 [fmimetype] testing detected mimetype [application/pdf; charset=binary] seeking expected string [/^application\/pdf/]... [1]
2014-10-27 13:17:41 [fmimetype] --- Method choosen to detect file mime types is [use_fileinfo] ---
2014-10-27 13:17:41 [installscript] Component installation seems successfull.
